
FCN_1Layer,10,0.1,<function softplus at 0x00000000090917B8>,47.25143255687082,-0.6121375427424627,52.40547165829556,-0.7938670987311744,18.73149053127093,0.38337712542809343,16.987913578681088,0.45060794175969787,angrier_mu
FCN_1Layer,10,0.2,<function softplus at 0x00000000090917B8>,65.07351367085573,-1.2201962723709392,74.48367066678341,-1.5496155644411713,19.84785113414384,0.34662759485266315,18.072770499054247,0.41552348164518405,angrier_mu
FCN_1Layer,10,0.5,<function softplus at 0x00000000090917B8>,23.352345899448093,0.20325815539461334,22.683713386111137,0.22352445588663272,23.2560381558215,0.23443331565864367,21.110942425022877,0.3172684769934946,angrier_mu
FCN_1Layer,10,0.75,<function softplus at 0x00000000090917B8>,24.10328620339017,0.17763736485273118,23.124366897651395,0.2084406523966723,25.811781386841563,0.15030067628601196,23.520376084750982,0.23934697642895852,angrier_mu
FCN_1Layer,10,0.9,<function softplus at 0x00000000090917B8>,26.37920721973238,0.09998685742428848,25.244623077017465,0.13586315846920005,28.595286903388384,0.05867031883343787,26.519334416685894,0.14236014617887538,angrier_mu
FCN_1Layer,20,0.1,<function softplus at 0x00000000090917B8>,41.38447772868135,-0.41196714306802873,44.06311594929964,-0.5083038367523838,18.327188996790497,0.3966863478825994,16.60184537319427,0.46309345418305525,angrier_mu
FCN_1Layer,20,0.2,<function softplus at 0x00000000090917B8>,57.522440083693645,-0.9625666395926444,59.331827521739605,-1.030959934734096,16.75883902791163,0.44831493902596686,15.149055364524669,0.5100769338998095,angrier_mu
FCN_1Layer,20,0.5,<function softplus at 0x00000000090917B8>,31.232832955568075,-0.06561049790973406,28.591768541160906,0.021288593394300337,20.252623820716387,0.3333028625188492,18.354096648168518,0.40642534540950936,angrier_mu
FCN_1Layer,20,0.75,<function softplus at 0x00000000090917B8>,23.80544309930465,0.18779925887288185,22.856144441707066,0.21762204936981133,23.998094543270476,0.21000552428991348,21.814865505210367,0.2945034830420076,angrier_mu
FCN_1Layer,20,0.9,<function softplus at 0x00000000090917B8>,25.165827624783994,0.14138528055695365,24.366451549463914,0.1659234357736874,27.073832790104877,0.1087551429586685,25.1574148044363,0.18640486158587066,angrier_mu
FCN_1Layer,50,0.1,<function softplus at 0x00000000090917B8>,45.57263744597485,-0.5548599433471333,48.24689609478788,-0.6515168508485565,14.890305294331547,0.5098252945479282,13.48642238921927,0.5638467713887136,angrier_mu
FCN_1Layer,50,0.2,<function softplus at 0x00000000090917B8>,97.05823377074296,-2.3114598653863805,97.28615749552077,-2.330156786511212,15.05309554970092,0.5044663939814955,13.27090207693123,0.5708167354994983,angrier_mu
FCN_1Layer,50,0.5,<function softplus at 0x00000000090917B8>,48.026762876285154,-0.6385904786285859,45.52441060720458,-0.5583247281863859,17.190486245155313,0.4341055226715437,15.436672684213278,0.5007753401215373,angrier_mu
FCN_1Layer,50,0.75,<function softplus at 0x00000000090917B8>,24.935294026755333,0.14925069009344116,24.329143384488425,0.16720051405474834,21.178999214405515,0.302807464555956,19.32584112846506,0.3749989611368847,angrier_mu
FCN_1Layer,50,0.9,<function softplus at 0x00000000090917B8>,23.670401696172082,0.19240663909469014,22.90963364552317,0.21579108554434134,24.57155194308027,0.19112785143601407,22.50905003950282,0.27205343534620774,angrier_mu
FCN_1Layer,100,0.1,<function softplus at 0x00000000090917B8>,38.849890164055324,-0.3254913782669542,38.05531404667138,-0.30265359016952664,8.606512360649806,0.7166817887234919,7.556113107481953,0.7556339974777331,angrier_mu
FCN_1Layer,100,0.2,<function softplus at 0x00000000090917B8>,121.36141896816314,-3.140642710114477,116.94120015838763,-3.0029593248983115,13.769032587636973,0.5467365269149832,12.273925049696581,0.6030591446967122,angrier_mu
FCN_1Layer,100,0.5,<function softplus at 0x00000000090917B8>,59.79336994019645,-1.0400468572388832,59.80665311658737,-1.0472134667657658,14.654333994642107,0.5175932455760677,13.107227469358023,0.5761100005682096,angrier_mu
FCN_1Layer,100,0.75,<function softplus at 0x00000000090917B8>,32.1190820040202,-0.09584778990103682,30.247319714838877,-0.03538180163794391,18.712218121544634,0.38401155484872684,16.856645701372,0.45485316757637384,angrier_mu
FCN_1Layer,100,0.9,<function softplus at 0x00000000090917B8>,23.910238090502755,0.18422383416171573,23.268194509039684,0.2035173569507147,22.58253164662625,0.2566045101532596,20.583633982392904,0.33432172307237296,angrier_mu
FCN_1Layer,10,0.1,<function relu at 0x0000000009091158>,26.74378970391517,0.0875479306368312,26.409599898936076,0.09598538377325594,19.602069285827984,0.35471849982219084,17.499957803101832,0.4340483431332012,angrier_mu
FCN_1Layer,10,0.2,<function relu at 0x0000000009091158>,27.980979779266544,0.045337134898908116,27.454712734015292,0.06021061694099328,20.55005544039155,0.3235116961401514,18.58131354090653,0.39907711186745976,angrier_mu
FCN_1Layer,10,0.5,<function relu at 0x0000000009091158>,25.595625991005548,0.12672130013347793,24.70804872409906,0.1542303832506019,23.939508197104253,0.2119341311524251,22.193891024918795,0.2822457322927021,angrier_mu
FCN_1Layer,10,0.75,<function relu at 0x0000000009091158>,25.86946567703968,0.1173783614190359,24.731491648751287,0.15342791950204782,27.972598057873427,0.07916864411322777,25.937251555085474,0.16118480642452093,angrier_mu
FCN_1Layer,10,0.9,<function relu at 0x0000000009091158>,28.11359465698956,0.04081254354718222,26.930261715298577,0.07816285356060282,30.12530763845705,0.008303489656782514,28.153336380867664,0.0895162405330936,angrier_mu
FCN_1Layer,20,0.1,<function relu at 0x0000000009091158>,29.173415658317598,0.004653275301263249,28.05255756994519,0.039746071018884166,14.588163912322909,0.5197715018286713,12.733731890804707,0.588188912065768,angrier_mu
FCN_1Layer,20,0.2,<function relu at 0x0000000009091158>,32.49011524314279,-0.10850680534305424,33.375565135542516,-0.14246330208787694,15.840408805785549,0.4785487894884092,14.086931842961272,0.5444261919717037,angrier_mu
FCN_1Layer,20,0.5,<function relu at 0x0000000009091158>,24.651205838271835,0.15894329007022956,23.65341339751051,0.19033111001941316,20.312345231738597,0.3313368903995174,18.521020519690378,0.40102699858368596,angrier_mu
FCN_1Layer,20,0.75,<function relu at 0x0000000009091158>,24.25509967159482,0.1724577506412025,23.472097695366195,0.19653764270135954,23.964032350645635,0.21112681931421962,22.23310957237484,0.2809773976965626,angrier_mu
FCN_1Layer,20,0.9,<function relu at 0x0000000009091158>,25.997767087142382,0.11300093815754186,24.944643163153575,0.14613163007593277,28.01782063160943,0.07767995994439014,26.035415537204827,0.15801016629394626,angrier_mu
FCN_1Layer,50,0.1,<function relu at 0x0000000009091158>,28.166586201832438,0.03900456325396462,27.662021379314865,0.05311433202421467,10.825470171971453,0.6436358054427314,9.253248216480287,0.7007483550281166,angrier_mu
FCN_1Layer,50,0.2,<function relu at 0x0000000009091158>,26.05816395554698,0.11094030097152774,25.542658077738956,0.12566126227121077,14.318368452784673,0.5286529120682453,12.603270922262602,0.5924080423136,angrier_mu
FCN_1Layer,50,0.5,<function relu at 0x0000000009091158>,27.655291758038796,0.05644904956119501,27.406216299300183,0.06187067563120885,15.60379778370015,0.48633779957012824,14.07030722644316,0.5449638349402789,angrier_mu
FCN_1Layer,50,0.75,<function relu at 0x0000000009091158>,23.86586055424146,0.18573791930982508,23.139278070897788,0.20793023502528396,20.08425374123588,0.33884544559454455,18.31081060496721,0.4078252235203381,angrier_mu
FCN_1Layer,50,0.9,<function relu at 0x0000000009091158>,23.711319390849543,0.1910105977858343,22.974877449332876,0.21355775552465484,23.9174144926659,0.21266143491493017,22.066094705179218,0.2863786873381865,angrier_mu
FCN_1Layer,100,0.1,<function relu at 0x0000000009091158>,27.981241258129703,0.04532821369019291,28.566005840854025,0.022170464294276604,7.7927445716829284,0.7434702513089482,6.727638824976093,0.7824269988170058,angrier_mu
FCN_1Layer,100,0.2,<function relu at 0x0000000009091158>,27.65988672635292,0.0562922771518507,28.17783634899142,0.03545771194512948,9.813103199025186,0.6769619645082711,8.341329698038471,0.7302399573649054,angrier_mu
FCN_1Layer,100,0.5,<function relu at 0x0000000009091158>,28.94586140355233,0.01241703477408651,29.061096270712465,0.005223256208627403,13.431959782079455,0.5578326434763379,11.87132888813685,0.6160791740731577,angrier_mu
FCN_1Layer,100,0.75,<function relu at 0x0000000009091158>,23.92368546464471,0.1837650329035856,23.285456521126356,0.2029264691185796,16.864751645571193,0.44482839626282444,15.113636834430185,0.5112223752783713,angrier_mu
FCN_1Layer,100,0.9,<function relu at 0x0000000009091158>,23.607350983033953,0.19455782089482543,22.84847968822131,0.2178844179481848,21.387201551215767,0.2959536414070614,19.455557882016738,0.37080389893033805,angrier_mu
FCN_1Layer,10,0.1,<function elu at 0x0000000009087F28>,33.12295331647548,-0.1300981510714303,31.205416339916116,-0.06817795743514843,15.58402592096625,0.4869886705093237,13.648217552574668,0.5586142878705083,angrier_mu
FCN_1Layer,10,0.2,<function elu at 0x0000000009087F28>,29.863601097745327,-0.01889466384357541,29.428282316083347,-0.007345716935988511,17.170501286471513,0.43476340852698236,15.233989011013103,0.5073301651078672,angrier_mu
FCN_1Layer,10,0.5,<function elu at 0x0000000009087F28>,23.01353258553863,0.21481788245002098,21.948674042720242,0.2486852425880567,21.496239791582457,0.29236420611354175,19.46166346601132,0.370606443289773,angrier_mu
FCN_1Layer,10,0.75,<function elu at 0x0000000009087F28>,24.934585312287776,0.14927487021113084,23.542260069326193,0.1941359474158676,25.75439592712663,0.15218975110731237,23.506781296508482,0.2397866342279753,angrier_mu
FCN_1Layer,10,0.9,<function elu at 0x0000000009087F28>,25.560189155007482,0.12793034397865088,24.217135837946426,0.1710345917987941,27.49870624897513,0.09476871229526163,25.449778495540304,0.17694976933652395,angrier_mu
FCN_1Layer,20,0.1,<function elu at 0x0000000009087F28>,36.38697684122697,-0.24146101521979557,36.709492253435386,-0.2565853961575897,12.359266547442209,0.5931446857706558,10.451444904469971,0.6619984672598229,angrier_mu
FCN_1Layer,20,0.2,<function elu at 0x0000000009087F28>,30.746353974961753,-0.04901267249043895,30.178987552087428,-0.03304275545314428,13.825964654719284,0.5448623773484547,12.004232846280573,0.6117810371198067,angrier_mu
FCN_1Layer,20,0.5,<function elu at 0x0000000009087F28>,23.003944985353858,0.21514499486474137,22.210549909168037,0.2397210927405845,18.482539381911437,0.39157236077734425,16.363605117667767,0.4707981851809605,angrier_mu
FCN_1Layer,20,0.75,<function elu at 0x0000000009087F28>,23.119012283958,0.21121909670708394,22.062993479071856,0.2447720276292482,23.16026050997909,0.2375862247771403,21.081197971783784,0.3182304177468761,angrier_mu
FCN_1Layer,20,0.9,<function elu at 0x0000000009087F28>,25.053987687281687,0.14520106670922406,23.651058598030115,0.19041171605497242,26.471211637841126,0.12859285883965332,24.313925270360492,0.21368345875342465,angrier_mu
FCN_1Layer,50,0.1,<function elu at 0x0000000009087F28>,36.777550283024404,-0.25478670874161513,36.51082292010669,-0.24978483947318497,7.95442048605727,0.7381480337895192,6.678130622344544,0.7840281026381165,angrier_mu
FCN_1Layer,50,0.2,<function elu at 0x0000000009087F28>,31.768432333609212,-0.0838842267362705,32.25089374050323,-0.10396520353816752,10.394421165751675,0.6578255292585098,8.809784217975928,0.7150900573075263,angrier_mu
FCN_1Layer,50,0.5,<function elu at 0x0000000009087F28>,25.190043009452136,0.14055909331514949,24.862910307094655,0.14892938910242215,15.368375557721407,0.4940876756132965,13.53318282202062,0.5623345309183372,angrier_mu
FCN_1Layer,50,0.75,<function elu at 0x0000000009087F28>,22.702797298420204,0.22541963556333755,22.039689119973573,0.24556974820537458,19.564607374873987,0.3559517103443779,17.592049363497992,0.4310700861696092,angrier_mu
FCN_1Layer,50,0.9,<function elu at 0x0000000009087F28>,24.43538155755052,0.1663068430200253,23.229971013023814,0.20482576749891923,24.280752493259055,0.200700693083257,22.122363154369914,0.2845589559761398,angrier_mu
FCN_1Layer,100,0.1,<function elu at 0x0000000009087F28>,34.14578784610299,-0.16499550456946843,34.5793618417273,-0.18366990201824906,5.124662674763812,0.8313009728484317,4.1043983302547025,0.8672630493407679,angrier_mu
FCN_1Layer,100,0.2,<function elu at 0x0000000009087F28>,30.84583964548456,-0.05240695231934556,31.47375202192953,-0.07736323019670466,7.987480981467818,0.7370597136859594,6.651382512089695,0.7848931411420439,angrier_mu
FCN_1Layer,100,0.5,<function elu at 0x0000000009087F28>,27.981079235836056,0.04533374161195558,28.122255387084728,0.03736027775982831,12.637085723240567,0.5839991424138156,10.866884313460845,0.6485630850439598,angrier_mu
FCN_1Layer,100,0.75,<function elu at 0x0000000009087F28>,22.541842642082226,0.23091113137882124,22.182073693481613,0.24069584871166572,16.7985874906436,0.44700645739132683,14.94155532116649,0.5167875211286358,angrier_mu
FCN_1Layer,100,0.9,<function elu at 0x0000000009087F28>,22.96757722460958,0.2163858002598108,22.103866874144412,0.24337290963042213,21.616411594061194,0.2884082645314653,19.501665710087646,0.36931276380962164,angrier_mu
