regressor name,layer1_num,layer2_num,dropout,activation,test mse,test r2 ,test wtd mse,test wtd r2,train mse,train r2,train wtd mse,train wtd r2,emotion
FCN_2Layer,10,50,0.75,<function elu at 0x0000000009098F28>,27.51051584,0.20890198,25.50865507,0.238301523,22.33009988,0.303447689,21.25507245,0.337725781,more-afraid_mu
FCN_2Layer,50,100,0.9,<function elu at 0x0000000009098F28>,27.3549522,0.2133754,25.59594149,0.235695116,23.17236335,0.277174606,22.06492957,0.312491923,more-afraid_mu
FCN_2Layer,100,100,0.9,<function elu at 0x0000000009098F28>,27.29635643,0.215060392,25.70730669,0.232369707,22.61786843,0.294471202,21.57914623,0.327628158,more-afraid_mu
FCN_2Layer,100,50,0.9,<function elu at 0x0000000009098F28>,27.55527355,0.207614918,25.74509575,0.231241311,22.96673091,0.283588986,21.77788398,0.321435806,more-afraid_mu
FCN_2Layer,50,50,0.9,<function elu at 0x0000000009098F28>,27.76809636,0.201494942,25.83318871,0.228610821,23.58082171,0.264433391,22.35192355,0.303549647,more-afraid_mu
FCN_2Layer,10,50,0.5,<function relu at 0x00000000090A7158>,28.19742683,0.189149027,25.8350799,0.228554349,20.79690006,0.351273444,19.76464711,0.384165062,more-afraid_mu
FCN_2Layer,10,20,0.5,<function elu at 0x0000000009098F28>,28.41524924,0.182885281,25.93744194,0.225497778,20.57017167,0.358345879,19.03867103,0.406785321,more-afraid_mu
FCN_2Layer,10,20,0.75,<function elu at 0x0000000009098F28>,28.1636107,0.19012145,25.98520632,0.224071515,23.170419,0.277235257,21.982194,0.315069831,more-afraid_mu
FCN_2Layer,10,10,0.5,<function elu at 0x0000000009098F28>,28.27877138,0.186809866,26.16145765,0.218808581,19.87016162,0.380181591,18.54417657,0.422192981,more-afraid_mu
FCN_2Layer,50,20,0.75,<function relu at 0x00000000090A7158>,28.55059489,0.178993254,26.18557927,0.2180883,20.92147288,0.347387591,19.48275203,0.392948464,more-afraid_mu
FCN_2Layer,20,50,0.75,<function elu at 0x0000000009098F28>,28.18814242,0.189416011,26.20089315,0.217631021,20.79365631,0.351374628,19.55121302,0.390815328,more-afraid_mu
FCN_2Layer,20,100,0.9,<function elu at 0x0000000009098F28>,28.30098746,0.186171016,26.21800722,0.217119989,24.81017632,0.226085609,23.52172606,0.267100463,more-afraid_mu
FCN_2Layer,20,20,0.2,<function relu at 0x00000000090A7158>,28.94153299,0.167751358,26.35650578,0.212984367,11.80002234,0.63191688,10.98197975,0.657818995,more-afraid_mu
FCN_2Layer,100,20,0.9,<function elu at 0x0000000009098F28>,28.30100538,0.186170501,26.37397655,0.212462683,24.36273428,0.240042859,23.11737197,0.279699493,more-afraid_mu
FCN_2Layer,10,100,0.75,<function elu at 0x0000000009098F28>,28.60418706,0.177452147,26.38681977,0.212079179,22.42382793,0.30052399,21.33042913,0.335377787,more-afraid_mu
FCN_2Layer,20,50,0.9,<function elu at 0x0000000009098F28>,28.40195545,0.18326756,26.43373103,0.210678391,24.83753963,0.225232054,23.63961759,0.263427151,more-afraid_mu
FCN_2Layer,10,10,0.75,<function elu at 0x0000000009098F28>,28.69608763,0.174809435,26.45776199,0.209960817,23.90257191,0.2543969,22.48477006,0.299410361,more-afraid_mu
FCN_2Layer,20,20,0.75,<function elu at 0x0000000009098F28>,28.52010176,0.179870121,26.50516151,0.208545448,21.72400807,0.322353769,20.39405463,0.364553725,more-afraid_mu
FCN_2Layer,50,10,0.5,<function elu at 0x0000000009098F28>,29.08822507,0.163533051,26.53859792,0.207547024,13.49394017,0.57907778,12.35028487,0.615184785,more-afraid_mu
FCN_2Layer,20,20,0.5,<function relu at 0x00000000090A7158>,28.4034163,0.183225552,26.59198205,0.205952953,22.02959649,0.312821419,20.79832879,0.351957187,more-afraid_mu
FCN_2Layer,20,100,0.75,<function elu at 0x0000000009098F28>,28.35559298,0.184600769,26.62184412,0.20506126,21.21446738,0.338248089,20.24763644,0.369115883,more-afraid_mu
FCN_2Layer,20,10,0.75,<function elu at 0x0000000009098F28>,28.8874572,0.169306373,26.69152702,0.202980501,22.71501998,0.291440713,21.33935638,0.335099628,more-afraid_mu
FCN_2Layer,50,20,0.9,<function elu at 0x0000000009098F28>,28.6725674,0.175485788,26.73817824,0.201587477,24.95444956,0.221585233,23.71087536,0.261206872,more-afraid_mu
FCN_2Layer,10,10,0.2,<function relu at 0x00000000090A7158>,28.85984456,0.170100407,26.75694293,0.201027156,19.92484203,0.378475921,18.6078021,0.420210511,more-afraid_mu
FCN_2Layer,50,20,0.75,<function elu at 0x0000000009098F28>,28.9800854,0.166642737,26.80422244,0.199615372,18.79010001,0.413872412,17.48599292,0.455164299,more-afraid_mu
FCN_2Layer,50,10,0.75,<function elu at 0x0000000009098F28>,29.13822353,0.162095285,26.86618722,0.197765079,20.13005763,0.372074544,18.85140536,0.412620221,more-afraid_mu
FCN_2Layer,10,10,0.5,<function relu at 0x00000000090A7158>,28.84255359,0.17059763,26.9391634,0.195585981,23.59007393,0.264144782,22.29006618,0.305477024,more-afraid_mu
FCN_2Layer,50,50,0.75,<function elu at 0x0000000009098F28>,29.03282087,0.165126265,26.94603304,0.195380851,18.78112922,0.414152242,17.20228007,0.46400434,more-afraid_mu
FCN_2Layer,10,100,0.9,<function elu at 0x0000000009098F28>,29.12143754,0.162577986,27.00560987,0.193601863,25.87908227,0.192742771,24.58094898,0.234096763,more-afraid_mu
FCN_2Layer,20,10,0.5,<function relu at 0x00000000090A7158>,29.09920349,0.163217353,27.04976226,0.192283456,22.20833852,0.307245843,20.81956066,0.351295635,more-afraid_mu
FCN_2Layer,10,50,0.5,<function elu at 0x0000000009098F28>,29.82845952,0.142246717,27.09775396,0.190850405,20.5662182,0.358469201,18.59716874,0.420541829,more-afraid_mu
FCN_2Layer,50,100,0.75,<function relu at 0x00000000090A7158>,29.9888522,0.137634433,27.10339111,0.190682077,17.34138043,0.459062939,15.89277794,0.504806341,more-afraid_mu
FCN_2Layer,10,20,0.5,<function relu at 0x00000000090A7158>,29.17281903,0.161100449,27.10700935,0.190574035,23.09476036,0.27959531,21.76304561,0.321898146,more-afraid_mu
FCN_2Layer,20,50,0.75,<function relu at 0x00000000090A7158>,28.8527655,0.170303974,27.10719733,0.190568422,22.58024204,0.295644898,21.48316569,0.330618759,more-afraid_mu
FCN_2Layer,10,50,0.9,<function elu at 0x0000000009098F28>,29.32375571,0.156760083,27.23096512,0.186872667,26.11207736,0.185474856,24.83066371,0.22631605,more-afraid_mu
FCN_2Layer,100,10,0.9,<function elu at 0x0000000009098F28>,29.55318274,0.150162633,27.31080612,0.184488583,26.35848661,0.177788507,24.97112524,0.221939492,more-afraid_mu
FCN_2Layer,20,20,0.9,<function elu at 0x0000000009098F28>,29.20206403,0.160259474,27.31989357,0.184217228,25.90556752,0.191916605,24.77846663,0.227942428,more-afraid_mu
FCN_2Layer,20,50,0.5,<function relu at 0x00000000090A7158>,30.04670746,0.135970735,27.44836027,0.180381162,17.70899527,0.447595772,16.25358035,0.493564312,more-afraid_mu
FCN_2Layer,50,50,0.75,<function relu at 0x00000000090A7158>,30.39682868,0.125902578,27.45968877,0.180042889,18.37229753,0.426905103,16.96181377,0.471496886,more-afraid_mu
FCN_2Layer,50,20,0.75,<function softplus at 0x00000000090A77B8>,29.42926078,0.153726158,27.47578167,0.179562349,21.40692155,0.332244784,19.93182769,0.378955981,more-afraid_mu
FCN_2Layer,50,10,0.75,<function softplus at 0x00000000090A77B8>,29.39366628,0.154749721,27.54217754,0.177579742,23.09442582,0.279605745,21.83465503,0.319666911,more-afraid_mu
FCN_2Layer,20,20,0.75,<function relu at 0x00000000090A7158>,29.64486458,0.147526211,27.5743563,0.176618871,24.65167804,0.231029714,23.27865544,0.274674157,more-afraid_mu
FCN_2Layer,20,10,0.5,<function elu at 0x0000000009098F28>,29.31941617,0.156884872,27.57459448,0.176611759,17.08145235,0.467170986,16.03981332,0.500224953,more-afraid_mu
FCN_2Layer,10,20,0.2,<function relu at 0x00000000090A7158>,28.70849529,0.174452638,27.58755011,0.176224899,16.66188719,0.480258661,16.01274469,0.501068368,more-afraid_mu
FCN_2Layer,10,50,0.75,<function relu at 0x00000000090A7158>,29.70569107,0.145777072,27.65352457,0.174254876,25.89944532,0.192107578,24.53954106,0.235386968,more-afraid_mu
FCN_2Layer,10,20,0.5,<function softplus at 0x00000000090A77B8>,29.67532133,0.14665039,27.70656786,0.172670982,22.76078521,0.290013139,21.34355391,0.33496884,more-afraid_mu
FCN_2Layer,10,10,0.5,<function softplus at 0x00000000090A77B8>,30.10560972,0.13427693,27.80041234,0.169868749,23.39003216,0.27038477,21.6662796,0.324913221,more-afraid_mu
FCN_2Layer,50,10,0.9,<function elu at 0x0000000009098F28>,30.0687309,0.135337424,27.85754164,0.168162846,26.9007712,0.160872793,25.52681531,0.204625074,more-afraid_mu
FCN_2Layer,100,20,0.75,<function elu at 0x0000000009098F28>,29.28208546,0.157958362,27.88392924,0.167374901,16.30933477,0.491255978,15.12664577,0.5286778,more-afraid_mu
FCN_2Layer,100,20,0.75,<function relu at 0x00000000090A7158>,30.30364098,0.128582302,27.89190448,0.167136758,16.54779071,0.483817721,15.2955273,0.52341572,more-afraid_mu
FCN_2Layer,20,20,0.75,<function softplus at 0x00000000090A77B8>,29.91991806,0.139616717,28.02388668,0.163195717,24.47078901,0.236672262,23.07216261,0.281108145,more-afraid_mu
FCN_2Layer,100,10,0.75,<function elu at 0x0000000009098F28>,30.21194599,0.131219102,28.0744105,0.161687056,18.03009526,0.437579564,16.81241648,0.476151868,more-afraid_mu
FCN_2Layer,10,20,0.75,<function relu at 0x00000000090A7158>,30.15708875,0.132796588,28.09783291,0.160987654,26.63323259,0.169218239,25.30380426,0.211573744,more-afraid_mu
FCN_2Layer,100,50,0.9,<function relu at 0x00000000090A7158>,30.35171284,0.127199938,28.12601168,0.160146225,21.69328244,0.323312207,20.06433271,0.374827336,more-afraid_mu
FCN_2Layer,20,10,0.9,<function elu at 0x0000000009098F28>,30.30254026,0.128613955,28.15213932,0.159366043,27.29134347,0.148689506,25.95086616,0.191412325,more-afraid_mu
FCN_2Layer,10,20,0.9,<function elu at 0x0000000009098F28>,30.24034692,0.130402399,28.21514156,0.157484771,27.19377491,0.151733004,25.97857234,0.190549044,more-afraid_mu
FCN_2Layer,100,100,0.1,<function relu at 0x00000000090A7158>,31.81760422,0.085046465,28.29933606,0.15497069,0.118895979,0.996291227,0.116012162,0.996385246,more-afraid_mu
FCN_2Layer,20,10,0.5,<function softplus at 0x00000000090A77B8>,30.31803892,0.128168272,28.30913202,0.154678179,20.41470405,0.363195447,18.91970839,0.410492007,more-afraid_mu
FCN_2Layer,10,100,0.5,<function elu at 0x0000000009098F28>,32.50225346,0.065358552,28.3095216,0.154666546,21.14839837,0.340309008,18.44653622,0.425235299,more-afraid_mu
FCN_2Layer,100,50,0.9,<function softplus at 0x00000000090A77B8>,29.8715143,0.141008625,28.38112713,0.152528377,23.87568347,0.255235642,22.78168809,0.290158868,more-afraid_mu
FCN_2Layer,100,20,0.9,<function softplus at 0x00000000090A77B8>,30.30527118,0.128535424,28.38389542,0.152445715,25.39306999,0.207903159,24.00568757,0.252020993,more-afraid_mu
FCN_2Layer,20,10,0.2,<function relu at 0x00000000090A7158>,31.86224038,0.083762899,28.43522909,0.150912871,14.01126824,0.562940546,13.33625247,0.584463605,more-afraid_mu
FCN_2Layer,50,10,0.75,<function relu at 0x00000000090A7158>,30.70524561,0.117033677,28.46777619,0.149941002,24.31159292,0.241638133,22.76174097,0.290780389,more-afraid_mu
FCN_2Layer,50,20,0.5,<function relu at 0x00000000090A7158>,31.82982899,0.084694927,28.55051371,0.147470427,16.17974752,0.495298248,14.95494966,0.534027577,more-afraid_mu
FCN_2Layer,20,10,0.75,<function relu at 0x00000000090A7158>,30.6641325,0.118215934,28.56992161,0.146890899,26.51006648,0.173060212,25.14616691,0.216485472,more-afraid_mu
FCN_2Layer,20,10,0.75,<function softplus at 0x00000000090A77B8>,30.50662836,0.122745156,28.68117492,0.143568832,25.8329553,0.194181629,24.58384983,0.234006378,more-afraid_mu
FCN_2Layer,100,20,0.9,<function relu at 0x00000000090A7158>,30.89649659,0.111534025,28.73569816,0.141940746,24.75949024,0.227666682,23.25967723,0.275265488,more-afraid_mu
FCN_2Layer,20,100,0.2,<function relu at 0x00000000090A7158>,31.02520923,0.107832738,28.73721724,0.141895386,5.829262989,0.818165318,5.765118143,0.820368097,more-afraid_mu
FCN_2Layer,10,10,0.75,<function softplus at 0x00000000090A77B8>,30.86979176,0.112301955,28.81056892,0.139705076,27.36164805,0.146496466,25.98592082,0.190320078,more-afraid_mu
FCN_2Layer,10,20,0.1,<function relu at 0x00000000090A7158>,30.9148502,0.111006245,28.82291015,0.139336562,13.32091114,0.584475149,12.63595274,0.60628383,more-afraid_mu
FCN_2Layer,10,10,0.75,<function relu at 0x00000000090A7158>,30.98583285,0.108965053,28.86570271,0.138058759,27.45182781,0.14368345,26.06871151,0.187740451,more-afraid_mu
FCN_2Layer,100,10,0.5,<function elu at 0x0000000009098F28>,30.16729636,0.132503056,28.87546028,0.137767395,10.5128204,0.672069118,9.7475657,0.696281371,more-afraid_mu
FCN_2Layer,50,50,0.9,<function relu at 0x00000000090A7158>,30.31958912,0.128123694,28.94140088,0.135798382,25.42068069,0.207041887,24.71324776,0.229974544,more-afraid_mu
FCN_2Layer,50,20,0.9,<function softplus at 0x00000000090A77B8>,31.01812599,0.108036425,28.98259601,0.134568279,26.99123191,0.158051014,25.53296937,0.204433324,more-afraid_mu
FCN_2Layer,100,10,0.9,<function softplus at 0x00000000090A77B8>,31.21739582,0.102306181,29.00646955,0.133855406,26.99422665,0.157957598,25.38164083,0.20914848,more-afraid_mu
FCN_2Layer,100,50,0.2,<function relu at 0x00000000090A7158>,32.28067874,0.0717302,29.05245863,0.132482154,0.647642875,0.9797978,0.643002075,0.979965079,more-afraid_mu
FCN_2Layer,10,20,0.75,<function softplus at 0x00000000090A77B8>,30.71504973,0.116751748,29.0837708,0.13154716,26.92081939,0.160247421,25.986897,0.190289661,more-afraid_mu
FCN_2Layer,100,10,0.75,<function softplus at 0x00000000090A77B8>,30.90073233,0.111412221,29.13934154,0.129887796,20.95718296,0.346273671,19.54621724,0.390970989,more-afraid_mu
FCN_2Layer,50,20,0.9,<function relu at 0x00000000090A7158>,31.16647391,0.103770502,29.156987,0.129360896,26.62900607,0.169350079,25.24879791,0.213287654,more-afraid_mu
FCN_2Layer,10,10,0.9,<function elu at 0x0000000009098F28>,31.3352359,0.098917548,29.16191181,0.129213839,28.51384945,0.110555357,27.15930739,0.15375922,more-afraid_mu
FCN_2Layer,20,100,0.5,<function relu at 0x00000000090A7158>,32.13307774,0.075974644,29.25146967,0.126539606,17.11607696,0.466090926,16.03742912,0.500299241,more-afraid_mu
FCN_2Layer,100,10,0.75,<function relu at 0x00000000090A7158>,32.04243715,0.078581124,29.25504874,0.126432734,18.20054668,0.4322626,16.86654668,0.474465257,more-afraid_mu
FCN_2Layer,10,50,0.2,<function relu at 0x00000000090A7158>,31.96016216,0.08094704,29.49435169,0.119287054,14.29195736,0.554184891,13.78178859,0.570581408,more-afraid_mu
FCN_2Layer,20,100,0.75,<function relu at 0x00000000090A7158>,29.41871838,0.154029317,29.51121268,0.118783578,24.591302,0.232913049,25.4042199,0.208444952,more-afraid_mu
FCN_2Layer,20,20,0.9,<function softplus at 0x00000000090A77B8>,31.8328667,0.084607575,29.51499188,0.118670729,28.62364753,0.107130378,26.94764105,0.160354406,more-afraid_mu
FCN_2Layer,50,50,0.5,<function relu at 0x00000000090A7158>,34.34291187,0.012428202,29.58224869,0.116662414,13.70763248,0.572411985,12.43911468,0.61241699,more-afraid_mu
FCN_2Layer,100,100,0.75,<function relu at 0x00000000090A7158>,33.85588469,0.026433255,29.60947131,0.115849536,16.74450985,0.477681377,14.6472692,0.54361441,more-afraid_mu
FCN_2Layer,100,50,0.5,<function relu at 0x00000000090A7158>,33.76730705,0.028980412,29.70822831,0.112900614,7.851866968,0.755073371,7.373263272,0.770260855,more-afraid_mu
FCN_2Layer,50,10,0.9,<function softplus at 0x00000000090A77B8>,32.01730808,0.07930374,29.75525737,0.111496307,28.21820666,0.119777468,26.53043772,0.173353798,more-afraid_mu
FCN_2Layer,50,20,0.5,<function elu at 0x0000000009098F28>,30.37460769,0.126541569,29.88636847,0.107581278,12.64708197,0.605494189,12.16382473,0.620994587,more-afraid_mu
FCN_2Layer,100,50,0.75,<function relu at 0x00000000090A7158>,32.65193107,0.061054392,29.90748957,0.106950594,15.8037274,0.507027604,14.17360714,0.558372966,more-afraid_mu
FCN_2Layer,20,10,0.1,<function relu at 0x00000000090A7158>,32.05599001,0.078191395,29.94112985,0.105946082,9.9174676,0.690640212,9.705350359,0.697596734,more-afraid_mu
FCN_2Layer,100,10,0.9,<function relu at 0x00000000090A7158>,32.0452863,0.078499193,29.94536307,0.105819676,27.51483364,0.141718082,26.13749246,0.185597346,more-afraid_mu
FCN_2Layer,20,10,0.2,<function elu at 0x0000000009098F28>,30.93050434,0.110556091,29.98307068,0.104693712,9.524225173,0.70290679,9.124677246,0.715689584,more-afraid_mu
FCN_2Layer,50,50,0.5,<function elu at 0x0000000009098F28>,30.96431333,0.109583873,30.01075274,0.103867115,11.04295159,0.65553251,10.51082437,0.672499446,more-afraid_mu
FCN_2Layer,20,50,0.2,<function relu at 0x00000000090A7158>,32.50691425,0.065224525,30.01194507,0.103831511,7.339588338,0.771053097,7.037299781,0.780728942,more-afraid_mu
FCN_2Layer,10,50,0.9,<function relu at 0x00000000090A7158>,32.05304105,0.078276196,30.02268173,0.103510911,29.16635282,0.090201541,27.87614257,0.131423777,more-afraid_mu
FCN_2Layer,20,20,0.9,<function relu at 0x00000000090A7158>,32.08054628,0.07748525,30.03422517,0.103166219,28.54399475,0.109615021,27.16927217,0.153448734,more-afraid_mu
FCN_2Layer,100,50,0.75,<function elu at 0x0000000009098F28>,31.71446961,0.088012226,30.07308079,0.102005975,16.00142223,0.500860825,14.88846937,0.536098997,more-afraid_mu
FCN_2Layer,50,10,0.9,<function relu at 0x00000000090A7158>,32.33466147,0.070177861,30.16582534,0.099236586,28.5674829,0.108882346,27.05388611,0.157043979,more-afraid_mu
FCN_2Layer,50,50,0.9,<function softplus at 0x00000000090A77B8>,31.20799648,0.10257647,30.22772179,0.097388334,27.0106453,0.157445444,26.59395055,0.171374839,more-afraid_mu
FCN_2Layer,10,100,0.5,<function relu at 0x00000000090A7158>,29.45438043,0.153003812,30.32501689,0.094483064,23.68830057,0.261080757,25.26721208,0.212713898,more-afraid_mu
FCN_2Layer,20,20,0.5,<function softplus at 0x00000000090A77B8>,31.73016228,0.087560964,30.39995137,0.092245491,18.89596851,0.410570011,17.40156062,0.457795075,more-afraid_mu
FCN_2Layer,50,10,0.5,<function relu at 0x00000000090A7158>,33.72333743,0.030244812,30.41185217,0.091890128,16.23980117,0.493424969,14.81673012,0.538334278,more-afraid_mu
FCN_2Layer,50,100,0.5,<function elu at 0x0000000009098F28>,32.05156293,0.078318701,30.43679347,0.091145371,9.71563731,0.69693599,8.859453435,0.723953535,more-afraid_mu
FCN_2Layer,10,20,0.9,<function softplus at 0x00000000090A77B8>,32.77522491,0.057508929,30.7079116,0.083049677,30.0797643,0.061709108,28.72933702,0.104839596,more-afraid_mu
FCN_2Layer,20,10,0.9,<function softplus at 0x00000000090A77B8>,32.81727296,0.056299787,30.72259009,0.082611372,29.909715,0.067013529,28.52462196,0.111218192,more-afraid_mu
FCN_2Layer,10,100,0.2,<function relu at 0x00000000090A7158>,32.76119235,0.057912452,30.78434297,0.080767406,12.47147797,0.610971879,12.419678,0.613022606,more-afraid_mu
FCN_2Layer,20,100,0.2,<function elu at 0x0000000009098F28>,33.18254203,0.045796035,30.83947721,0.079121076,4.276571586,0.866599082,3.840002969,0.880351621,more-afraid_mu
FCN_2Layer,10,50,0.5,<function softplus at 0x00000000090A77B8>,29.81616912,0.142600143,30.85071361,0.078785553,23.69712163,0.260805598,25.35715819,0.20991132,more-afraid_mu
FCN_2Layer,50,10,0.1,<function relu at 0x00000000090A7158>,31.93872568,0.081563472,30.88851854,0.077656683,3.968013573,0.876224064,3.59149341,0.888094783,more-afraid_mu
FCN_2Layer,10,20,0.9,<function relu at 0x00000000090A7158>,32.96608705,0.052020458,30.89871882,0.077352098,30.12298914,0.060360777,28.78444891,0.103122397,more-afraid_mu
FCN_2Layer,20,10,0.9,<function relu at 0x00000000090A7158>,33.06115937,0.049286539,30.98791104,0.074688784,30.00016615,0.064192047,28.64323737,0.107522324,more-afraid_mu
FCN_2Layer,20,20,0.5,<function elu at 0x0000000009098F28>,32.75442911,0.058106937,31.00632154,0.074139039,18.09124234,0.435672177,16.48897026,0.486229937,more-afraid_mu
FCN_2Layer,20,50,0.9,<function relu at 0x00000000090A7158>,32.28784898,0.071524011,31.08410604,0.071816363,28.84092677,0.100352695,28.36608148,0.116158061,more-afraid_mu
FCN_2Layer,20,50,0.1,<function relu at 0x00000000090A7158>,32.96136414,0.052156271,31.2295904,0.067472143,2.960302916,0.907658011,2.80107941,0.912722825,more-afraid_mu
FCN_2Layer,50,100,0.5,<function relu at 0x00000000090A7158>,36.34456143,-0.045131642,31.26243324,0.066491443,11.48131413,0.641858481,10.35869701,0.677239493,more-afraid_mu
FCN_2Layer,50,50,0.2,<function relu at 0x00000000090A7158>,34.74306357,0.000921358,31.37184262,0.063224436,2.932210032,0.908534324,2.766359025,0.913804657,more-afraid_mu
FCN_2Layer,50,10,0.1,<function elu at 0x0000000009098F28>,32.34898272,0.069766037,31.37905692,0.063009014,2.583917369,0.919398766,2.338508003,0.927135814,more-afraid_mu
FCN_2Layer,100,100,0.9,<function relu at 0x00000000090A7158>,31.56456038,0.092323046,31.40005089,0.062382126,25.29298941,0.211025015,26.13474831,0.18568285,more-afraid_mu
FCN_2Layer,10,10,0.9,<function relu at 0x00000000090A7158>,33.56659726,0.034752064,31.44533551,0.061029909,30.85612108,0.037491881,29.46623503,0.081879027,more-afraid_mu
FCN_2Layer,10,10,0.9,<function softplus at 0x00000000090A77B8>,33.58986295,0.034083031,31.4920278,0.059635659,30.9347084,0.035040473,29.58726119,0.078108045,more-afraid_mu
FCN_2Layer,10,10,0.1,<function relu at 0x00000000090A7158>,32.53099677,0.064532003,31.58167608,0.056958726,15.13730835,0.527815497,14.19718812,0.55763822,more-afraid_mu
FCN_2Layer,20,50,0.2,<function elu at 0x0000000009098F28>,33.42161873,0.038921096,31.58281757,0.056924641,6.713774016,0.790574389,5.955690152,0.814430176,more-afraid_mu
FCN_2Layer,100,20,0.5,<function relu at 0x00000000090A7158>,33.76056865,0.029174183,31.62562835,0.055646294,9.41885508,0.706193644,8.919498448,0.722082628,more-afraid_mu
FCN_2Layer,100,10,0.2,<function relu at 0x00000000090A7158>,32.13284981,0.075981199,31.64905479,0.054946771,2.282398703,0.928804166,2.135438111,0.933463148,more-afraid_mu
FCN_2Layer,10,50,0.1,<function relu at 0x00000000090A7158>,34.95531312,-0.005182133,31.69824399,0.053477962,9.392684314,0.70701,8.607033894,0.731818526,more-afraid_mu
FCN_2Layer,100,100,0.2,<function relu at 0x00000000090A7158>,36.25424727,-0.042534549,31.80010122,0.050436465,0.392243799,0.987764572,0.383362326,0.98805504,more-afraid_mu
FCN_2Layer,100,20,0.75,<function softplus at 0x00000000090A77B8>,33.3237664,0.041734958,31.91883538,0.046891017,18.92979059,0.409514984,17.48822025,0.455094899,more-afraid_mu
FCN_2Layer,50,50,0.1,<function relu at 0x00000000090A7158>,35.88254996,-0.031845945,31.92604445,0.046675751,0.633667584,0.980233737,0.615594475,0.980819056,more-afraid_mu
FCN_2Layer,50,100,0.2,<function relu at 0x00000000090A7158>,35.85793414,-0.031138088,31.94338357,0.046157998,1.520169051,0.95258072,1.457024627,0.954601432,more-afraid_mu
FCN_2Layer,100,100,0.5,<function relu at 0x00000000090A7158>,35.92631296,-0.033104403,32.03935929,0.043292125,5.602226954,0.82524735,5.196436714,0.838087305,more-afraid_mu
FCN_2Layer,10,10,0.2,<function elu at 0x0000000009098F28>,33.70166626,0.030867992,32.06140516,0.042633827,16.69084999,0.479355211,15.44299276,0.518820931,more-afraid_mu
FCN_2Layer,10,100,0.9,<function relu at 0x00000000090A7158>,33.14924122,0.04675364,32.08471111,0.041937902,30.25744944,0.0561665,29.98939932,0.065578061,more-afraid_mu
FCN_2Layer,50,50,0.75,<function softplus at 0x00000000090A77B8>,32.36285019,0.069367261,32.28249578,0.036031974,22.99145983,0.282817607,23.57346752,0.265488282,more-afraid_mu
FCN_2Layer,100,100,0.9,<function softplus at 0x00000000090A77B8>,31.88338427,0.083154881,32.36244832,0.03364456,28.67013484,0.10568028,30.0508532,0.063663256,more-afraid_mu
FCN_2Layer,100,10,0.2,<function elu at 0x0000000009098F28>,33.81603667,0.027579133,32.59972166,0.026559484,3.328880363,0.896160818,3.030492531,0.905574677,more-afraid_mu
FCN_2Layer,10,100,0.1,<function relu at 0x00000000090A7158>,35.29682829,-0.015002813,32.82666409,0.019782894,6.971975973,0.782520186,6.571978556,0.795227611,more-afraid_mu
FCN_2Layer,100,10,0.5,<function relu at 0x00000000090A7158>,34.71502959,0.001727509,32.99274638,0.014823612,8.954029116,0.720693158,8.345141697,0.73997867,more-afraid_mu
FCN_2Layer,20,20,0.2,<function elu at 0x0000000009098F28>,33.53136823,0.035765117,33.01770118,0.014078451,8.475222706,0.735628771,8.04317599,0.749387441,more-afraid_mu
FCN_2Layer,20,50,0.1,<function elu at 0x0000000009098F28>,34.8428274,-0.001947471,33.08179686,0.012164529,2.812422299,0.912270914,2.571241913,0.919884195,more-afraid_mu
FCN_2Layer,50,20,0.2,<function relu at 0x00000000090A7158>,34.66965395,0.00303234,33.17867001,0.009271859,5.195233283,0.837942877,4.936822043,0.846176485,more-afraid_mu
FCN_2Layer,100,50,0.1,<function relu at 0x00000000090A7158>,35.32715047,-0.015874764,33.19305672,0.008842266,0.156913847,0.99510532,0.151087941,0.99529234,more-afraid_mu
FCN_2Layer,100,20,0.5,<function elu at 0x0000000009098F28>,33.02919086,0.050205832,33.22519779,0.007882521,9.136961731,0.714986863,8.793755686,0.726000573,more-afraid_mu
FCN_2Layer,50,10,0.2,<function elu at 0x0000000009098F28>,34.27701268,0.014323213,33.24575262,0.007268746,4.292654168,0.866097411,4.08203329,0.872810341,more-afraid_mu
FCN_2Layer,20,100,0.5,<function elu at 0x0000000009098F28>,37.66260943,-0.0830337,33.25931335,0.006863817,21.2334328,0.337656492,17.96145751,0.440349579,more-afraid_mu
FCN_2Layer,50,100,0.1,<function relu at 0x00000000090A7158>,37.29962521,-0.072595651,33.28491678,0.006099289,0.357823876,0.988838248,0.329206002,0.989742465,more-afraid_mu
FCN_2Layer,100,20,0.1,<function relu at 0x00000000090A7158>,35.1250087,-0.010061934,33.29879225,0.005684962,0.463370213,0.985545896,0.449785363,0.985985404,more-afraid_mu
FCN_2Layer,10,20,0.2,<function elu at 0x0000000009098F28>,32.79646614,0.056898112,33.304417,0.005517004,17.25182548,0.461856464,16.13431793,0.497280339,more-afraid_mu
FCN_2Layer,50,100,0.75,<function elu at 0x0000000009098F28>,35.70389727,-0.026708572,33.44826925,0.001221519,19.84734779,0.380893232,17.80880694,0.445105928,more-afraid_mu
FCN_2Layer,10,10,0.1,<function softplus at 0x00000000090A77B8>,33.85202247,0.026544318,33.45145545,0.001126378,13.34210863,0.583813926,12.7871034,0.601574215,more-afraid_mu
FCN_2Layer,10,10,0.2,<function softplus at 0x00000000090A77B8>,34.32128786,0.013050027,33.46613617,0.000688006,16.68275015,0.479607873,16.00587407,0.501282446,more-afraid_mu
FCN_2Layer,20,20,0.2,<function softplus at 0x00000000090A77B8>,33.94130542,0.02397688,33.46845542,0.000618752,11.29390096,0.64770454,11.59174687,0.638819622,more-afraid_mu
FCN_2Layer,10,50,0.1,<function elu at 0x0000000009098F28>,35.46393172,-0.019808074,33.47583602,0.000398365,7.274553683,0.77308175,6.652230785,0.792727079,more-afraid_mu
FCN_2Layer,100,50,0.5,<function elu at 0x0000000009098F28>,33.74223613,0.029701357,33.51145113,-0.000665116,6.129342406,0.808804813,5.926621493,0.81533591,more-afraid_mu
FCN_2Layer,100,20,0.2,<function relu at 0x00000000090A7158>,33.72220632,0.030277338,33.6365773,-0.004401433,2.256644689,0.929607522,2.145562488,0.933147689,more-afraid_mu
FCN_2Layer,10,100,0.2,<function elu at 0x0000000009098F28>,35.92901531,-0.033182113,33.64503754,-0.004654059,9.773013854,0.695146219,8.680652254,0.729524696,more-afraid_mu
FCN_2Layer,50,100,0.2,<function elu at 0x0000000009098F28>,34.08321925,0.019895976,33.7800298,-0.008684981,1.209641072,0.962267151,1.270240653,0.960421323,more-afraid_mu
FCN_2Layer,20,20,0.1,<function elu at 0x0000000009098F28>,34.57523192,0.005747559,33.79569515,-0.009152755,3.701948748,0.884523537,3.484176839,0.891438597,more-afraid_mu
FCN_2Layer,50,50,0.5,<function softplus at 0x00000000090A77B8>,32.53847717,0.064316895,33.85910019,-0.011046054,16.95711447,0.47104951,18.50309955,0.423472876,more-afraid_mu
FCN_2Layer,10,100,0.1,<function elu at 0x0000000009098F28>,36.22967873,-0.041828052,33.94076156,-0.013484495,5.134066799,0.839850869,4.523640229,0.859050572,more-afraid_mu
FCN_2Layer,50,20,0.1,<function relu at 0x00000000090A7158>,35.64245422,-0.024941703,33.94467459,-0.013601339,2.071688951,0.935376925,1.960689765,0.938908028,more-afraid_mu
FCN_2Layer,50,20,0.2,<function elu at 0x0000000009098F28>,34.21553866,0.016090972,34.15328142,-0.019830421,2.928480838,0.908650651,2.957781813,0.907840228,more-afraid_mu
FCN_2Layer,20,100,0.9,<function relu at 0x00000000090A7158>,34.2021442,0.016476146,34.47612076,-0.029470531,31.11677101,0.029361317,32.23257834,-0.004315826,more-afraid_mu
FCN_2Layer,20,20,0.1,<function relu at 0x00000000090A7158>,36.43950499,-0.047861858,34.59777479,-0.033103168,6.721699571,0.790327164,6.61194375,0.793982359,more-afraid_mu
FCN_2Layer,10,50,0.2,<function elu at 0x0000000009098F28>,38.02435801,-0.093436216,34.69721998,-0.036072641,14.47941485,0.548337449,12.79713072,0.60126178,more-afraid_mu
FCN_2Layer,10,100,0.75,<function relu at 0x00000000090A7158>,33.41002047,0.039254618,34.70986975,-0.036450368,29.68288538,0.074089122,31.75256531,0.010640616,more-afraid_mu
FCN_2Layer,10,20,0.1,<function elu at 0x0000000009098F28>,35.92293976,-0.033007403,34.95920459,-0.043895604,11.55313839,0.639618036,10.89418549,0.660554524,more-afraid_mu
FCN_2Layer,10,50,0.9,<function softplus at 0x00000000090A77B8>,35.13399386,-0.010320313,34.9964025,-0.045006349,32.45630076,-0.012423205,33.16328263,-0.03331509,more-afraid_mu
FCN_2Layer,100,100,0.2,<function elu at 0x0000000009098F28>,34.9380262,-0.004685027,35.13664064,-0.049193915,0.340784132,0.989369776,0.369821406,0.988476954,more-afraid_mu
FCN_2Layer,100,100,0.5,<function elu at 0x0000000009098F28>,35.87562628,-0.031646847,35.14700848,-0.049503502,4.434864847,0.861661373,4.206788643,0.868923163,more-afraid_mu
FCN_2Layer,20,100,0.1,<function elu at 0x0000000009098F28>,36.17628749,-0.040292722,35.25319403,-0.052674245,1.249036287,0.961038279,1.179535776,0.963247543,more-afraid_mu
FCN_2Layer,20,50,0.9,<function softplus at 0x00000000090A77B8>,35.00591229,-0.006637173,35.3085218,-0.054326354,32.25731653,-0.006216205,33.39806523,-0.040630542,more-afraid_mu
FCN_2Layer,10,20,0.2,<function softplus at 0x00000000090A77B8>,34.61944742,0.004476089,35.34775905,-0.055497993,15.24586773,0.524429158,15.55451048,0.515346217,more-afraid_mu
FCN_2Layer,50,10,0.5,<function softplus at 0x00000000090A77B8>,37.18139935,-0.069195924,35.84171545,-0.070247726,16.89914687,0.472857718,15.59600115,0.514053433,more-afraid_mu
FCN_2Layer,50,100,0.9,<function relu at 0x00000000090A7158>,34.61096788,0.004719929,36.03905799,-0.076140452,31.21821965,0.026196786,33.51623792,-0.044312615,more-afraid_mu
FCN_2Layer,10,50,0.75,<function softplus at 0x00000000090A77B8>,34.67836339,0.00278189,36.18406132,-0.080470308,31.09981981,0.029890083,33.44635975,-0.042135322,more-afraid_mu
FCN_2Layer,100,10,0.1,<function relu at 0x00000000090A7158>,36.53455983,-0.050595275,36.23794975,-0.082079438,2.18096445,0.931968248,1.905356219,0.940632134,more-afraid_mu
FCN_2Layer,20,10,0.1,<function elu at 0x0000000009098F28>,38.19475448,-0.098336172,36.27625872,-0.083223359,6.243389502,0.805247294,5.884433304,0.816650426,more-afraid_mu
FCN_2Layer,10,100,0.9,<function softplus at 0x00000000090A77B8>,35.297683,-0.015027392,36.33461267,-0.084965831,32.40226875,-0.010737762,34.27075241,-0.067822085,more-afraid_mu
FCN_2Layer,50,50,0.2,<function elu at 0x0000000009098F28>,37.11186161,-0.067196283,36.38168869,-0.086371539,1.5385714,0.952006687,1.524241579,0.952507059,more-afraid_mu
FCN_2Layer,50,100,0.9,<function softplus at 0x00000000090A77B8>,35.03149893,-0.007372948,36.42874392,-0.087776627,32.20312832,-0.00452589,34.50633139,-0.075162351,more-afraid_mu
FCN_2Layer,100,100,0.1,<function elu at 0x0000000009098F28>,36.51525974,-0.050040277,36.46014075,-0.088714149,0.060396109,0.998116038,0.061830523,0.998073459,more-afraid_mu
FCN_2Layer,20,50,0.5,<function softplus at 0x00000000090A77B8>,34.31374687,0.013266877,36.53006919,-0.090802239,23.08706552,0.279835338,25.41131008,0.208224034,more-afraid_mu
FCN_2Layer,20,50,0.75,<function softplus at 0x00000000090A77B8>,34.65322013,0.003504914,36.72024854,-0.09648107,30.53094203,0.047635329,33.35238242,-0.039207138,more-afraid_mu
FCN_2Layer,20,100,0.9,<function softplus at 0x00000000090A77B8>,35.50351347,-0.020946295,36.78586426,-0.098440381,32.54493829,-0.015188113,34.6741221,-0.080390442,more-afraid_mu
FCN_2Layer,100,50,0.1,<function elu at 0x0000000009098F28>,37.78128389,-0.086446327,36.85901193,-0.100624599,0.105418095,0.996711648,0.099638262,0.99689543,more-afraid_mu
FCN_2Layer,20,100,0.1,<function relu at 0x00000000090A7158>,40.14460541,-0.154406484,36.88380723,-0.101364997,2.733084198,0.914745741,2.436103784,0.924094884,more-afraid_mu
FCN_2Layer,100,100,0.5,<function softplus at 0x00000000090A77B8>,33.55907555,0.03496836,36.93514294,-0.102897901,10.12299559,0.68422909,11.64492673,0.637162622,more-afraid_mu
FCN_2Layer,10,50,0.2,<function softplus at 0x00000000090A77B8>,35.11027838,-0.009638346,36.98924694,-0.104513468,14.1775254,0.557754415,15.16412528,0.527509998,more-afraid_mu
FCN_2Layer,10,100,0.75,<function softplus at 0x00000000090A77B8>,34.7474432,0.000795417,36.99619038,-0.104720801,31.06355567,0.031021285,34.11486114,-0.062964761,more-afraid_mu
FCN_2Layer,20,10,0.2,<function softplus at 0x00000000090A77B8>,37.59635004,-0.081128331,37.02911293,-0.105703882,13.50797622,0.578639948,12.97369481,0.595760324,more-afraid_mu
FCN_2Layer,100,20,0.2,<function elu at 0x0000000009098F28>,37.21628712,-0.070199164,37.13994246,-0.109013295,1.173358709,0.963398922,1.145898994,0.964295612,more-afraid_mu
FCN_2Layer,10,10,0.1,<function elu at 0x0000000009098F28>,38.84780351,-0.117115383,37.14966667,-0.109303664,12.37092893,0.614108348,11.51862634,0.641097941,more-afraid_mu
FCN_2Layer,50,10,0.1,<function softplus at 0x00000000090A77B8>,36.42454086,-0.047431547,37.22458255,-0.111540682,2.874305699,0.910340559,2.517546927,0.921557246,more-afraid_mu
FCN_2Layer,50,50,0.1,<function elu at 0x0000000009098F28>,38.12827931,-0.096424598,37.28552268,-0.113360378,0.331968641,0.989644761,0.334982253,0.989562486,more-afraid_mu
FCN_2Layer,50,100,0.1,<function softplus at 0x00000000090A77B8>,36.6979844,-0.055294745,37.55822697,-0.121503435,1.348361219,0.957939995,1.527096407,0.952418107,more-afraid_mu
FCN_2Layer,100,100,0.2,<function softplus at 0x00000000090A77B8>,36.53004581,-0.050465469,37.60885683,-0.123015263,1.978958776,0.938269497,2.258392494,0.929632085,more-afraid_mu
FCN_2Layer,100,20,0.1,<function elu at 0x0000000009098F28>,37.60458426,-0.081365116,37.6352158,-0.123802352,0.756498538,0.976402219,0.706638879,0.977982258,more-afraid_mu
FCN_2Layer,100,10,0.5,<function softplus at 0x00000000090A77B8>,37.59565422,-0.081108322,37.70069706,-0.125757648,11.71717474,0.634501181,10.90386586,0.660252899,more-afraid_mu
FCN_2Layer,10,100,0.1,<function softplus at 0x00000000090A77B8>,35.80287007,-0.029554654,37.70225733,-0.125804238,6.853307115,0.786221874,6.688333314,0.791602182,more-afraid_mu
FCN_2Layer,10,100,0.5,<function softplus at 0x00000000090A77B8>,34.36268973,0.011859466,37.70319966,-0.125832377,25.73080357,0.197368091,28.98222142,0.096960121,more-afraid_mu
FCN_2Layer,50,100,0.5,<function softplus at 0x00000000090A77B8>,35.04414365,-0.007736562,37.84340923,-0.13001909,16.02724615,0.500055289,18.6752044,0.418110362,more-afraid_mu
FCN_2Layer,50,100,0.2,<function softplus at 0x00000000090A77B8>,36.27641532,-0.043172018,37.88546993,-0.131275039,4.586794626,0.856922163,5.404983926,0.831589306,more-afraid_mu
FCN_2Layer,20,50,0.2,<function softplus at 0x00000000090A77B8>,36.88376016,-0.060636951,37.98240067,-0.134169429,8.698414036,0.728666668,9.544543689,0.702607214,more-afraid_mu
FCN_2Layer,100,100,0.75,<function softplus at 0x00000000090A77B8>,35.07876001,-0.008731997,38.23905033,-0.141833089,28.71437912,0.104300149,32.56176898,-0.014572882,more-afraid_mu
FCN_2Layer,50,100,0.1,<function elu at 0x0000000009098F28>,37.88771838,-0.089506979,38.29265506,-0.143433747,0.331838545,0.989648819,0.384874871,0.988007912,more-afraid_mu
FCN_2Layer,10,100,0.2,<function softplus at 0x00000000090A77B8>,36.32864182,-0.044673854,38.35019552,-0.145151928,12.56498713,0.608055008,13.41471747,0.58201876,more-afraid_mu
FCN_2Layer,50,50,0.2,<function softplus at 0x00000000090A77B8>,37.48288655,-0.077865552,38.4661757,-0.148615141,4.033461905,0.874182506,4.515604854,0.859300942,more-afraid_mu
FCN_2Layer,20,100,0.1,<function softplus at 0x00000000090A77B8>,36.73268259,-0.056292533,38.74114327,-0.156825781,2.223315049,0.930647187,2.431384789,0.924241921,more-afraid_mu
FCN_2Layer,20,100,0.75,<function softplus at 0x00000000090A77B8>,35.69664984,-0.026500164,38.80350179,-0.158687831,32.26656256,-0.006504621,36.29772858,-0.130979436,more-afraid_mu
FCN_2Layer,100,50,0.75,<function softplus at 0x00000000090A77B8>,39.30185867,-0.130172286,38.90958032,-0.161855378,17.82021572,0.444126425,16.76823369,0.477528534,more-afraid_mu
FCN_2Layer,20,20,0.1,<function softplus at 0x00000000090A77B8>,39.98529028,-0.149825185,38.99295163,-0.164344878,5.568772332,0.826290914,5.494239203,0.828808253,more-afraid_mu
FCN_2Layer,50,10,0.2,<function relu at 0x00000000090A7158>,41.15631565,-0.18349943,39.37037175,-0.175614791,6.60903987,0.793841406,6.245480922,0.805400757,more-afraid_mu
FCN_2Layer,50,20,0.1,<function elu at 0x0000000009098F28>,39.67579422,-0.140925253,39.37948321,-0.175886863,1.340239251,0.958193347,1.313494317,0.959073608,more-afraid_mu
FCN_2Layer,50,100,0.75,<function softplus at 0x00000000090A77B8>,36.1964997,-0.040873949,39.6358223,-0.183541249,30.71475944,0.041901435,34.8385583,-0.085514013,more-afraid_mu
FCN_2Layer,20,100,0.5,<function softplus at 0x00000000090A77B8>,36.11977108,-0.038667524,40.16740862,-0.199414626,24.0111845,0.251008901,27.62723187,0.139179438,more-afraid_mu
FCN_2Layer,100,100,0.1,<function softplus at 0x00000000090A77B8>,39.85902947,-0.146194404,40.34345461,-0.204671428,0.775021227,0.975824433,0.869206362,0.972916914,more-afraid_mu
FCN_2Layer,100,50,0.2,<function elu at 0x0000000009098F28>,39.61662326,-0.139223721,40.36119448,-0.205201148,0.561357987,0.982489321,0.574201313,0.982108801,more-afraid_mu
FCN_2Layer,50,50,0.1,<function softplus at 0x00000000090A77B8>,40.22039571,-0.156585925,40.51810706,-0.209886619,1.380915383,0.956924519,1.519586154,0.952652115,more-afraid_mu
FCN_2Layer,100,50,0.1,<function softplus at 0x00000000090A77B8>,39.64701481,-0.140097667,40.72673259,-0.21611626,0.733092612,0.97713233,0.747826029,0.976698931,more-afraid_mu
FCN_2Layer,100,10,0.1,<function elu at 0x0000000009098F28>,40.21300143,-0.156373294,40.73505522,-0.216364777,1.535855239,0.952091414,1.375292816,0.957148065,more-afraid_mu
FCN_2Layer,20,100,0.2,<function softplus at 0x00000000090A77B8>,39.03143215,-0.122395846,40.9394026,-0.22246667,7.631599619,0.761944265,8.688200804,0.729289495,more-afraid_mu
FCN_2Layer,10,20,0.1,<function softplus at 0x00000000090A77B8>,40.24418812,-0.157270105,41.00724379,-0.224492435,11.09323391,0.653964033,10.92271464,0.659665601,more-afraid_mu
FCN_2Layer,50,20,0.1,<function softplus at 0x00000000090A77B8>,41.24404843,-0.186022292,41.0479574,-0.225708159,1.805086098,0.943693181,1.742342874,0.94571137,more-afraid_mu
FCN_2Layer,50,20,0.5,<function softplus at 0x00000000090A77B8>,41.89940447,-0.204867844,41.08071252,-0.22668624,15.7846184,0.507623679,14.43488583,0.550231938,more-afraid_mu
FCN_2Layer,100,20,0.2,<function softplus at 0x00000000090A77B8>,39.64431776,-0.14002011,41.28998781,-0.232935282,2.780701336,0.9132604,2.487828706,0.922483218,more-afraid_mu
FCN_2Layer,20,50,0.5,<function elu at 0x0000000009098F28>,43.82170959,-0.260146044,41.40138217,-0.236261561,19.01115919,0.406976819,17.11859669,0.46661178,more-afraid_mu
FCN_2Layer,100,50,0.2,<function softplus at 0x00000000090A77B8>,40.02580436,-0.150990216,41.75560435,-0.246838775,2.14857609,0.932978551,2.446041184,0.923785251,more-afraid_mu
FCN_2Layer,20,50,0.1,<function softplus at 0x00000000090A77B8>,40.9761582,-0.178318786,42.20277633,-0.260191507,3.229648726,0.899256193,3.463648398,0.89207823,more-afraid_mu
FCN_2Layer,100,50,0.5,<function softplus at 0x00000000090A77B8>,42.06309127,-0.209574856,43.00553746,-0.28416227,10.63729024,0.668186478,10.69528476,0.666751954,more-afraid_mu
FCN_2Layer,10,50,0.1,<function softplus at 0x00000000090A77B8>,41.50432339,-0.193506812,43.2245436,-0.290701879,8.939364366,0.721150602,9.431084846,0.706142411,more-afraid_mu
FCN_2Layer,100,20,0.1,<function softplus at 0x00000000090A77B8>,43.71099831,-0.256962408,44.22968685,-0.320715852,1.347767059,0.957958528,1.257849278,0.960807419,more-afraid_mu
FCN_2Layer,100,10,0.2,<function softplus at 0x00000000090A77B8>,46.53408569,-0.338143686,47.270659,-0.411520477,4.113052044,0.871699817,3.590996835,0.888110256,more-afraid_mu
FCN_2Layer,100,10,0.1,<function softplus at 0x00000000090A77B8>,46.83241885,-0.346722615,47.35166979,-0.413939491,1.889271162,0.94106716,1.573980955,0.950957259,more-afraid_mu
FCN_2Layer,100,100,0.75,<function elu at 0x0000000009098F28>,52.98907844,-0.523764777,52.61735758,-0.571175,15.20847607,0.525595532,14.47264807,0.549055327,more-afraid_mu
FCN_2Layer,50,10,0.2,<function softplus at 0x00000000090A77B8>,53.34583462,-0.534023731,53.21664369,-0.58906992,7.381560788,0.769743832,6.921449745,0.784338645,more-afraid_mu
FCN_2Layer,20,10,0.1,<function softplus at 0x00000000090A77B8>,58.28402936,-0.676027469,55.41201862,-0.654624679,9.108537917,0.7158735,8.715700298,0.728432654,more-afraid_mu
FCN_2Layer,50,20,0.2,<function softplus at 0x00000000090A77B8>,53.92467316,-0.55066893,56.18863129,-0.677814639,4.553931058,0.85794729,4.462757106,0.860947593,more-afraid_mu
FCN_2Layer,100,20,0.5,<function softplus at 0x00000000090A77B8>,58.17020451,-0.672754298,59.65061186,-0.781190741,14.06218455,0.561352291,12.84934293,0.599634931,more-afraid_mu
