regressor name,layer_num,dropout,activation,test mse,test r2 ,test wtd mse,test wtd r2,train mse,train r2,train wtd mse,train wtd r2,emotion
FCN_1Layer,10,0.1,<function softplus at 0x000002992CCB2598>,34.44558966711719,0.04791135514178779,30.248284640846226,0.10152939143052497,19.72959185772574,0.43057417993948,16.801211642195515,0.4847148729781793,happier_mu
FCN_1Layer,10,0.2,<function softplus at 0x000002992CCB2598>,32.22195872629949,0.10937332428116242,30.107920586346175,0.10569865190150207,21.007779240833315,0.3936837615230425,18.010099187249978,0.44763887004015046,happier_mu
FCN_1Layer,10,0.5,<function softplus at 0x000002992CCB2598>,28.03987522393861,0.2249676355682101,25.03406912954229,0.2564082362734299,24.922032912946097,0.28071248856206965,21.433751288213614,0.34263709723389835,happier_mu
FCN_1Layer,10,0.75,<function softplus at 0x000002992CCB2598>,29.107160013042453,0.19546749524964535,25.57119024664181,0.24045402456569387,28.527921935819123,0.17664108512385457,24.884650705173872,0.23679966227521798,happier_mu
FCN_1Layer,10,0.9,<function softplus at 0x000002992CCB2598>,32.394549586986855,0.10460285002728098,28.561618120346516,0.15162877105222972,31.360029391720985,0.09490218640735937,27.52278728081573,0.15588927501085714,happier_mu
FCN_1Layer,20,0.1,<function softplus at 0x000002992CCB2598>,40.031813433065054,-0.10649390447475215,39.267767373015396,-0.16637803656328898,17.50781700521294,0.49469795789216686,14.8569258868795,0.5443451873704221,happier_mu
FCN_1Layer,20,0.2,<function softplus at 0x000002992CCB2598>,37.633919660584525,-0.040215247194735904,36.770239985241915,-0.09219350085637457,18.00102244655859,0.4804633039306565,15.320352298893546,0.5301321209163221,happier_mu
FCN_1Layer,20,0.5,<function softplus at 0x000002992CCB2598>,28.967479390940934,0.199328318521791,26.477288057705636,0.21354002724663101,22.13477430626293,0.3611569817516138,19.111850290900612,0.41384869052921247,happier_mu
FCN_1Layer,20,0.75,<function softplus at 0x000002992CCB2598>,27.342719277152938,0.2442372798693978,23.959054372728687,0.2883396060765032,26.33372099751784,0.2399690382654962,22.849241176452725,0.2992246992240082,happier_mu
FCN_1Layer,20,0.9,<function softplus at 0x000002992CCB2598>,30.34462167660312,0.16126360413588148,26.696385558211656,0.20703213210635996,29.53327017326238,0.14762521654021954,25.822265790638546,0.20804345595508222,happier_mu
FCN_1Layer,50,0.1,<function softplus at 0x000002992CCB2598>,49.61256100365711,-0.37130925701672,50.35317364037732,-0.49564998813131367,13.66850296741344,0.605506359820044,11.552715993449207,0.6456837247867924,happier_mu
FCN_1Layer,50,0.2,<function softplus at 0x000002992CCB2598>,59.593511936056174,-0.647186376249077,62.714453862642976,-0.8628194688429356,14.132213172802695,0.5921229829170488,11.697178832829874,0.6412531185825798,happier_mu
FCN_1Layer,50,0.5,<function softplus at 0x000002992CCB2598>,49.76221270665435,-0.37544568459668914,51.15792786155226,-0.5195537573345272,16.776003648801524,0.5158191966694725,14.050661864263489,0.5690729194027606,happier_mu
FCN_1Layer,50,0.75,<function softplus at 0x000002992CCB2598>,28.639956523633973,0.20838116987106092,26.11980336991725,0.22415846359120895,22.291276797749116,0.3566400834701555,19.146023829782774,0.4128006044328826,happier_mu
FCN_1Layer,50,0.9,<function softplus at 0x000002992CCB2598>,27.94653191859102,0.22754767852737623,24.644849294203464,0.26796930780116734,26.971546737380155,0.22156042405817356,23.58078004654963,0.2767887518871752,happier_mu
FCN_1Layer,100,0.1,<function softplus at 0x000002992CCB2598>,84.16337095249719,-1.3263062287871805,80.51011842287339,-1.391407511344282,5.104823990327392,0.8526670694498663,4.01421893532534,0.8768858247825622,happier_mu
FCN_1Layer,100,0.2,<function softplus at 0x000002992CCB2598>,86.32564499304091,-1.3860722708543496,90.3528624163305,-1.6837684267084914,7.422406474046415,0.7857781385552904,5.866429577083064,0.82007941009445,happier_mu
FCN_1Layer,100,0.5,<function softplus at 0x000002992CCB2598>,53.521286994749055,-0.4793478671245739,54.18809240414105,-0.6095593167562015,13.387459002627324,0.6136177131250404,10.977098245995956,0.6633376458508868,happier_mu
FCN_1Layer,100,0.75,<function softplus at 0x000002992CCB2598>,34.98932219526204,0.03288239001476745,33.006521636591344,0.019600948162720955,18.385877919741286,0.46935579369921576,15.337828778868845,0.5295961256324255,happier_mu
FCN_1Layer,100,0.9,<function softplus at 0x000002992CCB2598>,28.823362733604682,0.2033117554236059,25.73478075197588,0.23559486436441712,23.760483300231655,0.3142365647584002,20.49657190784376,0.37137994068712243,happier_mu
FCN_1Layer,10,0.1,<function relu at 0x000002992CC96D90>,27.19840319559283,0.24822622892939816,23.905232595960946,0.28993828464955196,20.748410651528147,0.40116953075375283,18.0756150138619,0.4456295309664804,happier_mu
FCN_1Layer,10,0.2,<function relu at 0x000002992CC96D90>,27.159205451517757,0.24930966885301675,23.928590676263223,0.2892444751038742,22.92015706479765,0.33848964911924095,20.00653078958061,0.38640926745519744,happier_mu
FCN_1Layer,10,0.5,<function relu at 0x000002992CC96D90>,27.730306994487755,0.23352421418734126,24.827802243474853,0.2625350212086154,23.376489157300647,0.32531921569784694,20.39030869923091,0.3746389824820785,happier_mu
FCN_1Layer,10,0.75,<function relu at 0x000002992CC96D90>,30.46335578185046,0.15798175021914307,26.744902824683237,0.20559101442149197,29.647623210361616,0.14432481517377438,25.853921945192194,0.20707257683233893,happier_mu
FCN_1Layer,10,0.9,<function relu at 0x000002992CC96D90>,34.288733137317855,0.05224692675885256,30.168611566930668,0.10389593604809477,33.15146474579073,0.04319865635297937,29.060161714521364,0.10873873627455755,happier_mu
FCN_1Layer,20,0.1,<function relu at 0x000002992CC96D90>,32.21499715009915,0.10956574478302394,29.88573770887376,0.11229819258642382,15.361088733916086,0.5566557781626172,13.073777293030432,0.5990335020734343,happier_mu
FCN_1Layer,20,0.2,<function relu at 0x000002992CC96D90>,34.99738957963678,0.03265940457218608,30.969565557949288,0.08010504581113631,15.07468945281858,0.5649216939848865,12.848237740433545,0.605950692302528,happier_mu
FCN_1Layer,20,0.5,<function relu at 0x000002992CC96D90>,31.338241091556366,0.1337996015907098,29.63681389521229,0.11969202443518412,20.18337146957485,0.4174774149649557,17.753683670976883,0.45550301131085,happier_mu
FCN_1Layer,20,0.75,<function relu at 0x000002992CC96D90>,27.738665924728192,0.2332931703108394,24.422418447909088,0.274576213951636,24.95430355912973,0.2797811089724912,21.887381689680268,0.3287244697390067,happier_mu
FCN_1Layer,20,0.9,<function relu at 0x000002992CC96D90>,30.095342412123156,0.168153773803569,26.462448811050592,0.21398080024024613,29.01398934687802,0.16261244549750942,25.363180898515406,0.2221233700701668,happier_mu
FCN_1Layer,50,0.1,<function relu at 0x000002992CC96D90>,33.572615570068116,0.0720406771562464,32.38120035614249,0.03817498626330307,10.346339567199065,0.7013890132567571,8.587686694119926,0.7366197555722874,happier_mu
FCN_1Layer,50,0.2,<function relu at 0x000002992CC96D90>,35.34179581298608,0.02313989083591006,32.38667336299841,0.03801242048944409,9.533994587298277,0.724834516320771,8.048331551271751,0.7531615198932847,happier_mu
FCN_1Layer,50,0.5,<function relu at 0x000002992CC96D90>,32.32109381389359,0.1066331943511043,31.574855914032117,0.062125990104400564,14.325607630165566,0.5865413267797532,12.428177593907073,0.6188337361311107,happier_mu
FCN_1Layer,50,0.75,<function relu at 0x000002992CC96D90>,26.663934186115394,0.262999147026308,24.456269550017204,0.27357072816383177,20.00984162770848,0.4224857482960396,17.50336802128987,0.46318007259020344,happier_mu
FCN_1Layer,50,0.9,<function relu at 0x000002992CC96D90>,27.690196314921394,0.23463288798046644,24.44280406979577,0.27397069590920586,25.526534909317277,0.26326564792318985,22.339960397604944,0.314844097182146,happier_mu
FCN_1Layer,100,0.1,<function relu at 0x000002992CC96D90>,41.18388536369244,-0.13833759226789,39.50902052090289,-0.17354402515323608,4.9128453967388905,0.8582078616201508,3.87561037767457,0.8811368829655335,happier_mu
FCN_1Layer,100,0.2,<function relu at 0x000002992CC96D90>,37.12286424482663,-0.026089489356399875,35.645057648925,-0.05877199380347076,7.340867915806507,0.7881314644997464,5.885777419541437,0.8194860210180501,happier_mu
FCN_1Layer,100,0.5,<function relu at 0x000002992CC96D90>,32.22464050195555,0.10929919902521923,30.043273420461166,0.10761887908676737,10.873411538812057,0.686176920080632,9.394075222354719,0.7118882050121573,happier_mu
FCN_1Layer,100,0.75,<function relu at 0x000002992CC96D90>,27.35083545911935,0.24401294564360865,25.186761971956997,0.25187277144699505,15.282561030865255,0.5589222062788015,13.348070238750187,0.5906210685902784,happier_mu
FCN_1Layer,100,0.9,<function relu at 0x000002992CC96D90>,26.49537676711203,0.26765813548290307,23.71313572938618,0.2956441747740669,22.11437418201902,0.36174576014909376,19.396434985535894,0.4051206140281509,happier_mu
FCN_1Layer,10,0.1,<function elu at 0x000002992CC8D0D0>,31.625785024343603,0.12585178255348928,29.246419520577724,0.13128798352922022,16.578111652812428,0.5215306585644827,14.043498800887736,0.5692926071312439,happier_mu
FCN_1Layer,10,0.2,<function elu at 0x000002992CC8D0D0>,27.980568735457645,0.22660688851161503,25.745666605709495,0.23527151976008764,18.773408750114523,0.45817106861846846,16.211753441489527,0.5027932741252734,happier_mu
FCN_1Layer,10,0.5,<function elu at 0x000002992CC8D0D0>,26.168877879559577,0.2766826836587841,23.145196979792654,0.31251376853901125,23.375471364479004,0.3253485907359266,20.351800539224396,0.3758200093355526,happier_mu
FCN_1Layer,10,0.75,<function elu at 0x000002992CC8D0D0>,26.558456349900872,0.2659145928385168,23.26441355697715,0.3089726556486002,25.259481558919816,0.2709732109658809,22.091271138279726,0.3224712778468145,happier_mu
FCN_1Layer,10,0.9,<function elu at 0x000002992CC8D0D0>,28.695504975182963,0.2068457904372829,25.24854141979783,0.25003772464160745,27.837239219848296,0.19657523149542833,24.54239130514668,0.2472965944116181,happier_mu
FCN_1Layer,20,0.1,<function elu at 0x000002992CC8D0D0>,37.58982038958912,-0.038996327281707543,36.683638006107685,-0.08962114563623813,12.40801363807097,0.6418859856741546,10.229450691791227,0.6862676388264168,happier_mu
FCN_1Layer,20,0.2,<function elu at 0x000002992CC8D0D0>,28.993315277282687,0.19861420521284356,26.151875269729455,0.22320582579093706,16.33172461685202,0.5286417605586731,13.907944155100944,0.5734500032976739,happier_mu
FCN_1Layer,20,0.5,<function elu at 0x000002992CC8D0D0>,26.635945834667208,0.2637727552548109,23.861669485938958,0.29123224807383763,18.844697265690854,0.456113574386673,16.109060430606462,0.5059428196630629,happier_mu
FCN_1Layer,20,0.75,<function elu at 0x000002992CC8D0D0>,25.89449563796812,0.28426670875733984,22.797108321384577,0.3228531128181812,23.251340659952863,0.32893119035223906,20.26424724794616,0.37850522691261,happier_mu
FCN_1Layer,20,0.9,<function elu at 0x000002992CC8D0D0>,27.288137623665435,0.2457459366526099,23.93018416885629,0.28919714328731516,26.15634816867521,0.2450882860050595,22.94009318115697,0.29643831168356194,happier_mu
FCN_1Layer,50,0.1,<function elu at 0x000002992CC8D0D0>,37.67638071184947,-0.04138888611770919,36.455613893431185,-0.08284810162010525,7.266893558524711,0.7902664761797848,5.857466320390603,0.8203543088911358,happier_mu
FCN_1Layer,50,0.2,<function elu at 0x000002992CC8D0D0>,32.36167638630205,0.10551147726794119,30.421373866893973,0.09638808890344108,9.515387266857855,0.7253715516926795,7.7135487358348325,0.7634291487554726,happier_mu
FCN_1Layer,50,0.5,<function elu at 0x000002992CC8D0D0>,27.88966067538975,0.22911962040423683,25.29313655218812,0.24871310685869252,15.399270472629665,0.555553795514669,13.05165272051698,0.5997120521328398,happier_mu
FCN_1Layer,50,0.75,<function elu at 0x000002992CC8D0D0>,25.87100341108456,0.2849160424652085,22.993955008532847,0.31700613786085863,19.937160836505797,0.4245834257052674,17.18172345614135,0.4730447575985268,happier_mu
FCN_1Layer,50,0.9,<function elu at 0x000002992CC8D0D0>,25.8843352179582,0.28454754646724467,22.688900721232933,0.3260672239492569,24.46439444387336,0.2939206259843824,21.374770844593055,0.3444459992363287,happier_mu
FCN_1Layer,100,0.1,<function elu at 0x000002992CC8D0D0>,40.324972304674226,-0.11459692246619602,38.5363697809827,-0.14465319340532434,3.8537948240144617,0.8887736607105678,2.9633043529408263,0.9091168724953999,happier_mu
FCN_1Layer,100,0.2,<function elu at 0x000002992CC8D0D0>,39.63969310711998,-0.09565555583975116,38.26837485888467,-0.13669288875962549,6.211157691890365,0.8207366078459989,4.910029133661565,0.8494117543602933,happier_mu
FCN_1Layer,100,0.5,<function elu at 0x000002992CC8D0D0>,30.548246664589144,0.15563533529959694,28.551628114740904,0.15192550610754474,12.475289685682583,0.639944297328145,10.472659034465062,0.6788085552545682,happier_mu
FCN_1Layer,100,0.75,<function elu at 0x000002992CC8D0D0>,26.93582885787532,0.255483879263968,24.571811235892064,0.27013877127583863,16.45633321663194,0.5250453681635365,14.015886640866423,0.5701394588754476,happier_mu
FCN_1Layer,100,0.9,<function elu at 0x000002992CC8D0D0>,25.57304485138945,0.2931517255835856,22.624191313095885,0.32798929992808956,21.95272480820211,0.36641120522832993,19.03878586608832,0.41608954150008093,happier_mu
