activeSelection,id1,id2
2,0,1
1,0,2
2,0,4
2,0,5
1,0,6
1,0,12
1,0,16
2,0,19
1,0,22
1,1,2
0,1,4
2,1,5
1,1,6
1,1,12
1,1,16
2,1,19
1,1,22
2,2,4
2,2,5
2,2,6
2,2,12
0,2,16
2,2,19
2,2,22
2,4,5
1,4,6
1,4,12
1,4,16
2,4,19
1,4,22
1,5,6
1,5,12
1,5,16
1,5,19
1,5,22
1,6,12
0,6,16
2,6,19
2,6,22
1,12,16
2,12,19
1,12,22
2,16,19
2,16,22
1,19,22
