0
1178783555
1308090717
673391286
232987387
-566784787
1057604298
-455611987
1144199560
170088515
-1003198946
-459637850
-833316398
570401945
301168577
823166030
695006282
378643452
-1119224326
-1388211246
928886755
930644853
-717778906
475908959
12722333
76100042
765288016
