regressor name,test wtd mse,test wtd r2,train wtd mse,train wtd r2,emotion,,,,test wtd rmse
LR,17.73970963,0.499531174,19.8095888,0.466035133,happier_mu,,,,4.211853467
LR,25.5536384,0.396028777,20.11890008,0.497835079,sadder_mu,,,,5.055060672
LR,22.07382486,0.244401264,24.24538047,0.215900209,angrier_mu,,,,4.698278925
LR,25.0490298,0.252026114,22.85537042,0.287863044,more-afraid_mu,,,,5.004900578
SLR,17.73970963,0.499531174,19.8095888,0.466035133,happier_mu,,no intercept,,4.211853467
SLR,25.5536384,0.396028777,20.11890008,0.497835079,sadder_mu,,no intercept,,5.055060672
SLR,22.07382486,0.244401264,24.24538047,0.215900209,angrier_mu,,no intercept,,4.698278925
SLR,25.0490298,0.252026114,22.85537042,0.287863044,more-afraid_mu,,no intercept,,5.004900578
SLR,17.73970963,0.499531174,19.8095888,0.466035133,happier_mu,,,,4.211853468
SLR,25.5536384,0.396028777,20.11890008,0.497835079,sadder_mu,,,,5.055060672
SLR,22.07382486,0.244401264,24.24538047,0.215900209,angrier_mu,,,,4.698278926
SLR,25.0490298,0.252026114,22.85537042,0.287863044,more-afraid_mu,,,,5.004900579
SLR,17.73970963,0.499531174,19.8095888,0.466035133,happier_mu,,,,4.211853468
SLR,25.5536384,0.396028777,20.11890008,0.497835079,sadder_mu,,,,5.055060672
SLR,22.07382486,0.244401264,24.24538047,0.215900209,angrier_mu,,,,4.698278926
SLR,25.0490298,0.252026114,22.85537042,0.287863044,more-afraid_mu,,,,5.004900579
SLR,22.71537884,0.124726818,23.26304896,0.122289464,more-surprised_mu,,,,4.766065341
SLR,23.2588663,0.177760281,23.47886389,0.234144276,more-disgusted_mu,,,,4.822744685
