more-surprised_mu,more-surprised_sigma,predicted_more-surprised_mu
12.192553111199999,4.77357222119,25.85150012468632
12.5674838915,5.05768418354,22.711481349334232
13.531708483900001,5.042409016640001,24.031293053282106
13.5984469639,4.91594762732,24.354529048030617
14.7473966829,4.33495173853,23.965275108045063
17.5722032947,4.38426275464,23.9406508263443
17.6775507524,4.60915115261,25.722129066861136
17.92438098,4.57853542294,23.728872523348375
17.9480404044,4.39850151906,25.498994352602722
17.9960731222,4.34824309132,22.56516442239838
18.1472199475,4.3944261371,21.643775132589234
18.632358477100002,4.24826262581,24.19163205460103
18.6339316838,4.55463007553,25.00941301687913
18.6360782975,4.252375634630001,25.567755605422903
18.663047173699997,4.69935713612,25.78131252124778
18.831261798499998,4.3068494988,23.04786587964775
19.1254796773,4.46415114611,23.52115794942386
19.213628646500002,4.55493418933,27.33762922781485
19.3318804477,5.02510234122,24.132177917348784
19.7485281792,4.8891325237,24.609211341284098
19.767310870699998,4.996650003,26.076664538917328
19.8264674044,4.61685269034,23.856025086187717
19.8440181159,3.12618653144,24.348703466187914
20.0738937359,4.47899133199,23.75610186605247
20.671502715,4.34628418808,26.219742619774475
20.927152685699998,4.1419845867400005,21.409371944154472
21.0009223767,4.40167506379,23.07480958253357
21.043093800999998,4.500634247290001,26.050979145963556
21.1430569437,4.24106013885,26.539734354376115
21.280415145899997,4.6354067031,24.412643409093565
21.837845617,3.27598054157,21.83752518600175
21.9584025354,4.155204780880001,23.82355094001489
22.0356655539,4.956323257159999,26.687303784568268
22.145165784299998,3.68968336461,24.848944453021833
22.380807229899997,4.35152827287,24.389343255554166
22.532240944899996,4.53722333518,24.921913220093348
22.628556899099998,4.23079912211,21.49244596571821
22.6976695985,4.38448196247,27.411462931338257
22.8287660153,4.42900826666,28.75123412610355
22.834622647600003,4.47510112694,23.70808555049576
22.8539713704,4.69511964827,24.207514740636643
22.9705488587,4.66952739072,26.824284242501214
23.021850472399997,4.66523551709,26.760060501159735
23.0467747493,4.20227849729,25.383149683432364
23.054419921999997,3.15004406085,22.76246022100486
23.3003366731,4.57939399699,26.22394151006568
23.3039468503,4.61676954189,28.301521896548216
23.437130437199997,4.3185197442300005,23.045089742719064
23.4845297283,4.32208028134,24.753401344881688
23.5044492127,4.2236958578,27.125954862847493
23.549129381500002,4.15225914965,27.438584380428924
23.5510108008,4.64860835777,21.47681354637132
23.5913767668,4.3502034504,24.746591678014425
23.752368010799998,4.49797007194,23.918845904899516
24.2414986499,4.54811106112,28.91428390587953
24.243265663400003,4.22516964684,26.62198361719082
24.2856735828,4.21680311046,26.41660628681021
24.3349643873,4.34611206123,23.593376354731554
24.473530826399998,4.3558531350699985,25.423657767208496
24.4885582525,4.76525328214,26.469303108746143
24.561261909899997,4.35277588282,25.2668789631092
24.7200518792,4.41006768726,27.143544152059345
24.840563299299998,4.49412685967,23.453479600096728
25.1015218541,4.4854997473500005,26.215214007501338
25.1082192045,3.27685419286,22.215666806416717
25.177441502199997,3.39998943033,27.637872868122834
25.2252713475,4.47086783006,24.399613803729334
25.3393850077,2.82163530742,24.414281464803977
25.5155906979,3.0908847984599994,24.203940110934486
25.7388075213,3.11358350033,25.3718035433926
25.7642707585,2.26056262758,22.156325796521923
25.8833972743,3.25914284835,27.796836960510426
26.0862683029,3.35890695014,22.873057404730655
26.167614902399997,3.0344526121,21.99463029765856
26.192797804,2.25664291224,23.518903281578396
26.2090881472,4.84400137367,27.429768378170444
26.3107814002,3.04180861858,25.758492802298207
26.4764724107,3.17255764292,24.734548683424503
26.528263952600003,2.98562501124,27.32725788179181
26.757467909099997,3.17904604694,22.369918052112023
26.7803396019,3.88313239749,26.550123372677113
26.8491385794,3.22313420595,25.895359789153655
26.980903616,2.9430891367900003,24.343910785860594
27.0873899354,3.2324703891500004,26.520424813574856
27.092428795500002,3.19016419229,23.34877842029435
27.2262946291,2.98250898326,25.352750536474705
27.2725507442,3.07232582705,26.420848790084804
27.2848300273,3.5257092447800003,29.289611216074967
27.425291087199998,3.0145149693700004,21.518531940845058
27.653185544699998,3.21998795033,29.805015629655358
27.7295934913,3.99350724444,24.245618156043705
27.7705242611,2.97831362989,23.174715061174698
27.8073425495,3.25078208635,25.789412922251998
27.817217889000002,3.22845315718,26.10690452978587
27.844135256599998,3.14473759256,27.54315435844595
28.057984221799998,3.608324231030001,25.924780434452046
28.2254060641,2.1402132967900003,25.05934414658585
28.243521834499997,3.38336191638,24.307640168460697
28.4281484102,3.22556662047,27.148067539597626
28.56635272,2.12392896429,21.850567912182996
28.6628939487,3.67663860906,29.045001585822057
28.7170397525,3.27498534293,23.90045608429887
28.979261575,3.4293475881,24.02074779408214
29.4505543423,2.17631049613,28.198745807082602
29.5809936942,3.7552006704,25.328983808351953
29.6944786802,2.14174215257,25.341529115024827
29.8344656921,2.20022611973,27.308738329878885
29.89618041,2.13953703306,24.70831865679551
30.0274513579,2.08690207168,24.02636869811972
30.0929323664,1.9282930995200005,24.436255843616173
30.3036078248,2.09168018504,25.17936181404802
30.4395415323,2.21631605341,24.874781124273
30.4810923949,2.01815378483,24.93793384403311
31.267932489,2.11582554086,26.82879311313504
31.358749483,2.07870160434,26.294898340437133
31.3894459416,2.12128391568,25.800421226468092
31.4199697829,2.10532590165,24.30152459835236
31.773793986999998,2.07450466432,26.146112665095075
31.839848154200002,2.14852696945,26.32218759044048
32.0186882614,2.0133315999900003,26.99680036270444
32.0589206251,2.1420774247,25.98260493756576
32.1165134572,2.22677241974,28.613054233162497
32.116599683800004,2.1884729204,27.586137407205005
32.2385623283,2.19971586089,26.914538565413306
32.3803901705,2.16324393962,27.183803068896278
33.8234236352,2.2027572720200004,28.438460432492498
33.9229384867,2.23359761583,24.154717448069643
34.094977093000004,2.13530906702,28.94272914132437
34.364685586,2.08622047965,27.03162672084406
35.0739810625,2.20539132624,27.92656265361493
35.2274657042,2.05225493631,26.05081795306833
35.4857435527,2.15384049141,29.005961526336627
35.696057355,2.35191485253,26.8708213182518
36.6034510374,2.38283519108,27.099424726336867
